[api-updater (non-obsolete-error-filter)] 12/8/2021 11:41:06 PM : Starting C:/Program Files/Unity/Hub/Editor/2020.3.24f1/Editor/Data/Tools/ScriptUpdater/APIUpdater.NonObsoleteApiUpdaterDetector.exe
[api-updater (non-obsolete-error-filter)] 
----------------------------------
jit/startup time      : 3167.3104ms
moved types parse time: 76ms
candidates parse time : 1ms
C# parse time         : 991ms
candidates check time : 31ms
console write time    : 0ms

[api-updater (non-obsolete-error-filter)] 12/9/2021 3:26:27 PM : Starting C:/Program Files/Unity/Hub/Editor/2020.3.24f1/Editor/Data/Tools/ScriptUpdater/APIUpdater.NonObsoleteApiUpdaterDetector.exe
[api-updater (non-obsolete-error-filter)] 
----------------------------------
jit/startup time      : 2057.6673ms
moved types parse time: 101ms
candidates parse time : 13ms
C# parse time         : 610ms
candidates check time : 32ms
console write time    : 0ms

[api-updater (non-obsolete-error-filter)] 12/9/2021 7:29:22 PM : Starting C:/Program Files/Unity/Hub/Editor/2020.3.24f1/Editor/Data/Tools/ScriptUpdater/APIUpdater.NonObsoleteApiUpdaterDetector.exe
[api-updater (non-obsolete-error-filter)] 
----------------------------------
jit/startup time      : 350.9122ms
moved types parse time: 86ms
candidates parse time : 2ms
C# parse time         : 231ms
candidates check time : 40ms
console write time    : 0ms

